{
  "type": "service_account",
  "project_id": "angular-geode-289003",
  "private_key_id": "ee8a1e2cc9585ec7b9b407fc9b546689961a8733",
  "private_key": "-----BEGIN PRIVATE KEY-----\nMIIEvQIBADANBgkqhkiG9w0BAQEFAASCBKcwggSjAgEAAoIBAQCqwJe0qJK5NY2F\ng6tmFsxmw8/+LfEX5t/Wu3LfhicAS4ul4aumTOaOdGJ7uhbN+HSSoWr8gl+I9KUY\nMoPXOtfql0g4SL0yVHG3lavceXKv3lbFq287OmxH+YGCQOxAjICTEvk5HmYKIuMW\nGN9Xt1IBNEI9xOH1DiUZg2n90LGuEcpaTHQh2NT2deNT/L5p+NKqwb+hhKT4XHl2\nJH21YNJWp0pAFCeEZlY6TH+wdK27Va8aHvm/d/fwoDKzmvnYpdspsCptuklEjQ86\n0Pg8u2wYeyZ6rgsamthF9/y9srwx9M9shSqpZkByAjMU2rjKfkoEmaj+txgILyiv\nsjacQv7xAgMBAAECggEABAdHglAd0g0fjyBUSV7NU2QC7V9pGjlssNS6+Odh1oHH\nGX1G/u/pL+rdWJztz83boN/6YFsKZPacny2wlZcs+TsOIvcjBjkey7LWG1KphYOs\nhBJaLUlgvPFNKw+xYzPNZBWPrVd4bHx2jhK9Ji/MLqdseVJCoHTvzs0eZt9nFGZg\n1+Rjtf0N5+sQoJPzgCTHw+oOwPS2O27GiBMmouTYpWaMX9zvKf5NrNoeYXaFBkKO\nzueQOh+kUPZAz+GrMdkFE1VafBegJwS4EkWWMkA/om6UVxk1eepurIavs1xr5sXs\n1OlGnivz+joS4D5+CjjY6zXKWI2neLLUa12JXnGZrwKBgQDZRn6Vb5ze/tugsfG6\nn0ilDpmM1hOQ+mhVrFjMfRz7GKVEryU1R9GPxFDZBhx4X/T8dFc7H2KvpZrVX/v7\nZQygBRmkHFfxhX2NQyaHGu+iYM+6Ifmvc2oedwMnn/Y+ECmZzcB2bQER0rHy9LJo\nSQQLuH8VAPAgIS+tdKmGO3HBJwKBgQDJL2p7mEA6Wjt9t9SHbrHZVHBjFXwyBOgI\nDWavzhTzNdzcWowmtPvs7iqUVCdlDNsgSgw2xWnYBNXF1a4afEh5CRZgG44tsfJT\nI9jVqQyEep8SG8s/5juVXLVFXYQZmSviqzIrSjx7cek4ih3yZgLtIWg4tHT6qJxX\nE4Zms9QeJwKBgQDBZFK1dkP95IDelqRfhPlnGQipZ77As3H8l8vuL4qFIRmxeee3\ndfZcbdO8aAkdR+PKdU9Ta4suZkvbknS5/eZv5Do/bY8FhdkLzHJVnS8gq+UZerZA\naY1SEoJ3WZUXBtHQeWfOwRVLpOsJIq5NznfQauaKbmxNXNyQGp/tv6lvzwKBgHif\nGivCK/gQc4y7tAwDPVR9QOjXT+A5etihGEkduQfc6m+fRlpKtqTmYtcN4ZS/cX3Z\nh5srH3up4nW72Kf+jgErhqPWwZb6ErzwSChKM7wWPNtBmMnWAzFZJUHSgMpMQLil\nRe4Yk0y8DkWc4bmcmfKMzgz5fQ1wHFRE25cmCG6PAoGANBsq9YTSrdMY22BhUTuK\ncrcDEMCj+KbJpUnP60Hgt34E72x5mOs7ar2/Q0LAXboSeZg0YU+MfHww8yHQ4DHL\nreyckETT6yy7iKTnnqWm8KD6Zp+QhVegycE5WX1t3cysDK4QLxE5Hezr5dGUO7I6\n7r341pwdQtepxR+TsqnBf60=\n-----END PRIVATE KEY-----\n",
  "client_email": "somedco-13@angular-geode-289003.iam.gserviceaccount.com",
  "client_id": "104471470062592843570",
  "auth_uri": "https://accounts.google.com/o/oauth2/auth",
  "token_uri": "https://oauth2.googleapis.com/token",
  "auth_provider_x509_cert_url": "https://www.googleapis.com/oauth2/v1/certs",
  "client_x509_cert_url": "https://www.googleapis.com/robot/v1/metadata/x509/somedco-13%40angular-geode-289003.iam.gserviceaccount.com"
}
