{
  "type": "service_account",
  "project_id": "angular-geode-289003",
  "private_key_id": "865af090f3df758fa58df412d9892b8e258ed3b9",
  "private_key": "-----BEGIN PRIVATE KEY-----\nMIIEvgIBADANBgkqhkiG9w0BAQEFAASCBKgwggSkAgEAAoIBAQCoW7o5LhbTCeRM\nqZeLwpOjcgzqsQQVdXPhWuT6Utgx+gglvN9LZ8Lr5dCgYzh0QQc+QVQoJ9AlVkl4\n1eP3iAJW47TbtcKODrDO9fhPxeYrAg3JFn8tThTHnBm9tTOib/7IDHG4eql4NU5C\ns3oBe+Vdu+ZL2NT64949SSJBublIehOu0rmAzyAwCIoEVpW7c+V8XGH2d7S9MYA7\nmSGWXkesu/UnJfynam+cv8aNNNqiiMl4iI7BCOc8F1F9P5gugx0/GGJ/Ow3WqG6X\nDWBVr7JEtmlREtDMbnVpbgXB74uaLAHsI4B5WMpkWmE24rTHAb18nzey4TN0Y2QT\nso8VzZkNAgMBAAECggEAA9M5suziJd9WqYs83zcHhbIkqvxknFwzys32390b/l6w\n6rKU3DC6VAO/rrUyZinIEVkIoXTuHLsOJkmtyUT00KaRyGAj0Hhy+fDKuH1FknqU\nd5okP5JDlJluWEoSp0EmJ8NongljalDDu246emgnOO7494YwqJaeyQOtXJLsq8HY\n1pVbq0q9p4RejAUf/abd2gaVzVp5qHbrDu3vFO2xGonMC/r1PUv2z6FSZQUAe/93\nuhMa8vLt0EddaLU/CwrpmTEuNDoXOEJXoZhs6L2KKopBvescmEjsmN8qeUC9zgC5\nfPPjO0u31ryxkkp3q9olwwb50ysWMPWaXQPaelVGQQKBgQDdcB3xbUAnDURHiBKb\nO+NxpfJr1a5402b7GWKgXJ7GTIvM0FJk0dbw6AFZBfcK+Fsqv9Q82i0/OgEggaw/\nlLi6rKok4EiUNK/a/6fVzoGBZoiTVIo7hkAv9oBsFmq3hnTX3wneuKlTCigkxzc3\nZ/0pfy7GmJJjXDYvCPL0NH/38QKBgQDCorv1hoHqekYNzwThF2aWadpCeXP0vuHP\n8sMjuH9e82AGVfdQ9NT7FFAL0JYYY948oS3eW3IiNn5u3TQkHPqWIdsss7MhB6fK\nGmVITrYHl3Gy4hT1qEMYRGBjcNrIQgt/CfDadQvEpDSXC23yOhWqT35ksv6iAoyS\nStcTBntu3QKBgQDOcVdJHIyBm+m7Mo3+MWBDNO4EQKuvM4+/q5P6Yz8XKofvQ4x9\nN/DGmdWf1GLT1GTSPxM0REeIuaARWTNn91QdnRnm1T51BYWpi01ClIrCRAAyMs/I\n3Ml8rbhejKujO/Q0yVhfTxN1OnPgjeXZftZT2KGYPufDQFW3lgVDTKq9UQKBgQC6\nyU20bOdUzQ9ZxSibk8eB5gft73yWjnFLDWC0cSTbTJkEu49jA/M5Gd9P11eUBJOM\nf+nzELNRnhZr8qFNXvolBky+c54evqgJzpcQc2lBk9crosgWkOoC6evOwslTkf5S\nZoncPKOUjTljEzbqVU/hZ/SWUykG9YdOBcCto3TliQKBgECGwhWWA2VrLUBDEoR3\n5E5+n9iRYbmbUE5ZeIpbAa/gC+cXEYiDsBKHqRPnn7gfj/N59XyzZKo3qcEvYBX4\nJygsq4RAInE0RGa7T3j/t9DShl/W4MHmYtSfN6MeqIbgk7wpZEuxUt+yjFtUEVpA\n223yoXu6u7cSqvZKaEHq8/Uh\n-----END PRIVATE KEY-----\n",
  "client_email": "somedco-37@angular-geode-289003.iam.gserviceaccount.com",
  "client_id": "101009898401894057784",
  "auth_uri": "https://accounts.google.com/o/oauth2/auth",
  "token_uri": "https://oauth2.googleapis.com/token",
  "auth_provider_x509_cert_url": "https://www.googleapis.com/oauth2/v1/certs",
  "client_x509_cert_url": "https://www.googleapis.com/robot/v1/metadata/x509/somedco-37%40angular-geode-289003.iam.gserviceaccount.com"
}
