{
  "type": "service_account",
  "project_id": "angular-geode-289003",
  "private_key_id": "2bfa776faaa41573d09ee9f6b433ef9b488becdd",
  "private_key": "-----BEGIN PRIVATE KEY-----\nMIIEvQIBADANBgkqhkiG9w0BAQEFAASCBKcwggSjAgEAAoIBAQCb6SQqXyYHAbt8\nWNnAX9puXQpnsbYC4dDO3nHoNL5qdshyy6dy3nUSossvsxUDcqe4QRfLohouQlTw\nnQVSEvSIYksq2gcuWobRKgPWBggNAiA36tuCKAryqaCYYYs0LbiB4n3459ssWQH7\nHcAXNGfekupdhdWphyemM3XqOvLGtfRsj4lc5F/VhcemUP9PEpAK5pTzSruXoRQf\nu2pxt1ZEyu44GWdDIQlSZOPWKYGm9MxqlL95V72FniIRjyJVFQxoD93gnetlBsMZ\n55UNDpzovpo0hAAUeJGSw8sbEuZPFw29Mg55PNMIf8N4Nu/sZUmXS7dOsGTpf9bN\nRaW6swrfAgMBAAECggEAM9jqH/UYTkgzMvzRHPpDR2RFa4pbfsXdjI3Iz3GKyRjL\nO/Ghs79qq1Hbw/cHy+e7ArkS0rMLhcqlOIbfGBYZn6kgWhW7QZz1LGWOdQP4dWr5\nj97YNIZgbaYfM81sX2O88eSCA94Gss6+q+WO1ailygyNR6CUFxZNByYh1kzYI2Al\n7W9sBLbQ1CCVPuq51cDyTV2pWgA2/0WRFz+d00QeeyA6LpnkBGqseFdb+YFo7VaO\nwYxuEMLhPniSyFmypHJbyjcIO2VGJY1ILo8Mn0yjMD1gUovIvguchC2J/ZRI3qht\nkLzbIZvPuioXoLb/jBlVzDDz02Xgo2Dj9VxlxlnJoQKBgQDRSxjzwP+uU/N7NHNS\nre0uvCKJ6auZ5Ol4At2QbGkKFMVn37Bx/kmbYwz8zPmRhgV6BEMLBuKCRc8pngBq\nRqlEp4gb2KTRG1fE76EJr65iuNasc1RZgOuYUcQUQYmSR+85sZLgXkTQX80odCyH\nrxU6+ZQVXwUDB8TmopmcKUnzVwKBgQC+tEzeJx/yhdqj1/EqGS8/EzxXQHtvOuXW\n1b7yNTVH5bSxzBBQFo2Cztre367RKA8nRA2ImIFIe7eOmx0StoXmwXXZ6w8w8tZ2\ntUR2kdH/KcSKx+FbnPeTsonZcP2cogEWEdeoeS/cP6n2cJ3YJVb9GJlNo+iyqI31\nGOJEyMm3uQKBgHDE9fzg0OMteNO5vymdbV7xH+sPbNbO8L0pThizUSWNa5A8huXl\nDeQbyrOr/gzbGbhU84rNet6Wnrjd2Xtp92p2mm/mm2fQQ8ppE2wUrPGkhocE3T4c\nqNS5udzwMyAOgmejtnAOWyWreO+DKTsyq03LjG63dAvd88oRcpMh7CahAoGBAIai\nS9Ja1NcnYOBjR8Ns3Eovjl4bDAnPDwzJAnGE1wTXSuZrJukjwuwilarbSFQpb+lM\nxjE1WbCOh1yKbdAURBxRYJ5ksOjhyD8uYhNDh3oZRsSjsJo5CyCe32s/tgyq4xFt\nr08ln4BjAd8WSpmaYvt0Lmb93P6kuPPciYH+L0shAoGADYn+xn6+TlIBSdDM4Rhj\nj4uJ62bl+sEqoavNu4EbzUK4xcmm2eAk7OAXje9+/IgmuByzt9uqPL0tRehdo2vj\n6CbESQXXk6uE/z1Ctjo5pv5BIRQ5cIDp8SLWtgn0k7HRrxBUcTOJfgXDZBfsZLh4\nofICwCqwYl5l3/AT9wyzONs=\n-----END PRIVATE KEY-----\n",
  "client_email": "somedco-4@angular-geode-289003.iam.gserviceaccount.com",
  "client_id": "116105895930229848160",
  "auth_uri": "https://accounts.google.com/o/oauth2/auth",
  "token_uri": "https://oauth2.googleapis.com/token",
  "auth_provider_x509_cert_url": "https://www.googleapis.com/oauth2/v1/certs",
  "client_x509_cert_url": "https://www.googleapis.com/robot/v1/metadata/x509/somedco-4%40angular-geode-289003.iam.gserviceaccount.com"
}
