{
  "type": "service_account",
  "project_id": "angular-geode-289003",
  "private_key_id": "ddb92c9530b4a0f349334b9cb06a1ec3311a1a2e",
  "private_key": "-----BEGIN PRIVATE KEY-----\nMIIEvwIBADANBgkqhkiG9w0BAQEFAASCBKkwggSlAgEAAoIBAQDCKEsEXnH87YP1\nmLmiBxPzmpuS9OMGbfSE3M/IDiOD3p53nmM1r3W7mMfZSUwOokvxHgeUyVYNoEWq\nzfn6lPfyNyEePo4Mcwp2ABhglv8yPmTlMHwccVuysmEhJGD0SMJyaJ44KkDbS3yf\nK7ggYP3rReIuH8W24ioX2KtCn27Rh0DFM9o034bTz5wEeSJsS/N3enLZH68nOZ2Y\n7qdaS3QhbQHym5re0yl6yltDLEMF4wGqFKsJ4TBmkBzqzMKGbuqBOx9XuQKNMInf\nGFyUrO00DWOYYqODpvKi3//DkYrbbeK2RkPZUOO0vB804xYeUfueW+CEDpmSh9Ud\nQw/RT4xTAgMBAAECggEAXz9yEcodZGXGqzjJtHWBcavCr3TIXNKbNoS2wB9DiAEx\nv1/prqANg0Lfo7ZkA/fVhotjT7f3qcaa9sCGZkonWuF1s0cf23aiRqIkU1owBl96\nkr7W3AM2Z3M/2AjnMV/yWDr/h3EfERW2pMVHVkcOuhk17Me0cFQCL2GhHpVlQY8c\nMsEm8lEvHY+NdQJRFISBV2XhbQ5t+zF0vaDIPnmEHnq+s7LznYGl9BvNUwe7xtz8\nob4dnozPSR8wM7IesF+HlNBAd9gSQVvXId4/Gn1lwjvqzASu4znxG18aMVA7jMFw\nKunm+cPhEV5PZvNx9QAiW4DAUzVmu+vR0Qqzbt8W2QKBgQDnDRp3p8IWwD17sjAq\n3ftoqtjNdMpezBd0P+hjY4G3X6tp2BWs/x51MdSF60JRsMK9KiCBjV2QdVrYMcfs\nJetW/QRwZB0L9LrBQkSmnDLuYMu6SFX4T+o4xbDbbD9Hv9v0RwwTg7L9WtfV0dwN\nroh6BrE6lNVItHWJ01kw5Akx2QKBgQDXH1fBB/fY3Zt1TiRvIoVZ16VWjiJB+YJT\nZbZuE25l7ePGpCSHXULiRUqfhZo9NfyECQDS2DQYm3Wmq8ZM6mJA2bqPmCShtx5/\ni+xoKqkXiC8k63ySO3VQsjRhfHeckCVXu4EGSGqBwRhoSZOOidT4LXkhZOaPwdHl\nI2UDCVSoCwKBgQDO4HSqXpLyO/7RGqL2Pvw0o4Srsb7hUmxNskspcpda0VZx1wDR\nfTyQQqW/ov4mltZG+clRNnpoNiu5GBmh3/HwWWv4FivL4Ly2/dbqN0GDHzhK+ym+\nxA879gZ88VdXrvoKpvKxJmLFZumKkfUuau/YEtXtVgYCq1HyrkJV/FgfQQKBgQCO\njqCytLsUJdctZ3lRhIjmPre8ojgljFlHNvIsBAh216zIKGJkqfL2y4BmMj1CLxKF\n1QmMr+XmIK9YoiCpO/GclCzDl8k+uYEmeO1TImInzAGh78P/jBN0RIPdzoPdZtC4\nUPNx3G9oSTQJeCimnsRZKplI/fqkbYbQ2CHKX1aQfQKBgQC7AwzJzsHcASPyYgqH\nDAhGdK3/erq3IAaN6iA1vbc2sKU8Vq9Gjdx9dAzzwYOk5R+rTmLtBCdxSllfrKYr\nIGSRJ9+LeIknoBXF0d/cN5Z9J+nWqfyd8+gehEWhYlTY1DIjooeOLWHQmb8Yk25A\nVVep3dSW9HLZyTmE8m78mKH3HA==\n-----END PRIVATE KEY-----\n",
  "client_email": "somedco-44@angular-geode-289003.iam.gserviceaccount.com",
  "client_id": "113896870866435743620",
  "auth_uri": "https://accounts.google.com/o/oauth2/auth",
  "token_uri": "https://oauth2.googleapis.com/token",
  "auth_provider_x509_cert_url": "https://www.googleapis.com/oauth2/v1/certs",
  "client_x509_cert_url": "https://www.googleapis.com/robot/v1/metadata/x509/somedco-44%40angular-geode-289003.iam.gserviceaccount.com"
}
