{
  "type": "service_account",
  "project_id": "angular-geode-289003",
  "private_key_id": "2e4f6c523e76051f7e39a0285b41d8569129227d",
  "private_key": "-----BEGIN PRIVATE KEY-----\nMIIEvgIBADANBgkqhkiG9w0BAQEFAASCBKgwggSkAgEAAoIBAQCNOVlW+twTb55T\nT/XzJ/qbBhacShCGKejJzb4z9NH9HzqEekiDdYZkmhPc+OyRKVRE3s1p/KmHjDUK\npuSCZnm3kEmhNstEmypG7m7dLfUc4gf2S3bq4icWBvE5LPFw2XDs45mL3Drctinp\nz/r9QbF3ZmUyoz0fQwiuimEkj18ThXZD+093fycgLyBstA5zk0gbUgz5tG17FASM\ne7+tRgsQy6aP4CUbp/5hmCm00EplfKdw5Y/uum3A3yzI771pWN7OJpiRQ3+xKbJY\nGTo/snFHcyK7SOAIL3ixh/kG6TK0xc18yQLVLq4dETiVerRdvgWZCsZ/IXeYahvG\nmGEG4wAJAgMBAAECggEAQmfblxdJocgEAjfgtlAvunKP8jivcW7GfBIHJIYzsZrc\nGMwpSctbAPYkbe0MzCtLaUD9BR/eFZM7o8EbRSfrhwHNZYWO6jkuFYFrVwyTq9ur\nE8ijZ8okx+pGxnRYKZDNVU6mdkn90afEqKF361tXGAZpgniYtpj+PZhrGlZiRhpy\nT4QJ+b6Sb+7PSQeYDrAvfjbdAz9wiaSRmVvNQsh4IHZhehxMC9xhZNxCZLoyC5dv\ndPLMBz6URfBqf6HFgwSbz7m/f3RWRrlP480fFtnOyzQmMNGQj/vwEOFyZihOJ9m7\nQWSaHKPPrpO3CEQ/K43EQ1plnz+NJqYDQjXOGsziSwKBgQDAp//2YJhNVYLPGq12\n374WBUmlH6Y6/q3bjYbODRSqqUIgwuYgGtVU0s0+AXP7xiX8XmVLNwBqww+TdeJT\nZ9VXKGXfTTdem2kWm2E1gzqgPLmOFqCkFOUahgtzPkcjTgnWuH8qDTbAB3cqwr/y\nng/OmMkWvj1oIAAhafhvfix5jwKBgQC7qEPsnHcTSkp/hK8tr9nhIgNYPMZg9tjM\nSrpbJuJwE5z+zdJa9xdxs7rBwesTw2RiEskZIidlqAdg3jeXx9GrTsNZ4FMTRg/4\neV4n5qYdonDDsQZG+lGEDFi8oaMd4jjmVpFRbeXb7goWsgi4hWSwYqeM0xHfHL4D\nx8Zw1mGw5wKBgF4vA2RITsynvD5RVXIi6cPMK/espFB9BzOpWbjMDklsW6a2gVg6\npgZE1A+3GCOC+DkLUMvXhL2sxKWbYNzTiymD12G2VxZKNbLWnUxS7ks9xJzhFQGC\nMYqo81oQnSh2UzsEkS5WrWhtfeWKtdn/Scz/Rnd244BO/KFZNBoVfdqjAoGBAKqr\n9eL7xxzHQ4xIy95cgmfMvIgC9lX4C+N5z5XZfrZ6UB46aagL9MmXsjJIwRm/asv7\n0+RE+NnvAY7rbFpiBOKuBuP2Lvhnj1zoXWci0lA/jhmdJl1lir/zTr14sNccCa4M\na6xIrHbjP0+26lGQGKyHfWWKDkYCaRsdFfFIOZ9fAoGBAJtBQ3F/14cJvHhjgrAQ\nbIPvNLXuDsGrMBfjbIaZUuumnv8p0eiNRN8JuAbgBXlEbDNkO4w3RgZ1qkqNG0Gb\nk+Fxwk4eXJL8my6l3uhDmhFQ23GPHohg49rP+nRYyLGHKT16/zL17hGZ4FYpiUJ7\nnqv5g2Pi3LZnm03QVVC0S08h\n-----END PRIVATE KEY-----\n",
  "client_email": "somedco-49@angular-geode-289003.iam.gserviceaccount.com",
  "client_id": "110528915012758752670",
  "auth_uri": "https://accounts.google.com/o/oauth2/auth",
  "token_uri": "https://oauth2.googleapis.com/token",
  "auth_provider_x509_cert_url": "https://www.googleapis.com/oauth2/v1/certs",
  "client_x509_cert_url": "https://www.googleapis.com/robot/v1/metadata/x509/somedco-49%40angular-geode-289003.iam.gserviceaccount.com"
}
