{
  "type": "service_account",
  "project_id": "angular-geode-289003",
  "private_key_id": "d766bb335586da798eef6773d1e8fe67b8a81a7d",
  "private_key": "-----BEGIN PRIVATE KEY-----\nMIIEvgIBADANBgkqhkiG9w0BAQEFAASCBKgwggSkAgEAAoIBAQC/w/Q0c9uGWJow\n0wp2L5v0x7CP/kFCxjJGbVcToi6RuQsClhazGbVrmWLjyYgZHECMa0nAfh3+IFrt\nemtDcAojJO+nYz6J5A/RyG6Sc3ZVe75R1emfIdCKtEpuI6+Y0Faz+v6Ap3ssQCrC\nkA5byUXGWGI3suvua4GlNRzw4OROrK3CDswqfGdJ5CTr4xfBa/dzxMJErf+Z6eBm\njbcrXavEq/vZgSzLuPLOFeuKES0R6yOExEk2oD7pgOleuRDNIOnPyMRx51uss4Sn\nrcIpouBP6O/17yjSHyTBKeiOXMZn0wn9444JUnNSwYQWISkDnzcgt6Tf91iJNvK9\n35n7SU+pAgMBAAECggEATybIBOBvU1/94LozHr4e7qV/xKdq829QMA6QevudoitR\nFpOxseIiJlPs4916rfah0/OywN+tbIeZUF0Pqgm0PXZQ7vPBS/QU7X9/2DYNOVJ2\np1uWbsbrx1yMPjK/l2Ei8G3gn2TBq+2eWKlSK+ODR8+SVrAkvsej/vdRx0DkK25W\n4sVwyZ4J0bXEZRkmDnjTbxoggbiy1UOw+m3pHLESXHy0pOvQQFf0GkwSR5Mde54o\nXLx/VWI73qosFDC7sJwXq8lOkP2a64m30pH3LYf8ijtLcPuZPVSNUKxSNdazOxPl\nUXaplJb4hoVkNjxppmNhZhI3EXtZHntv7aqAi8jFqwKBgQDi2WBc1TaO89uWj9eL\ntCk8YEjt2ya/G6Fvsed4n2yS7JPcSeW90e3czHQHLixAnmsiESN0OVzFcuxcx5LG\nIYUCalHV1PHV7DAozSOE0/H9BtbdVECMct4+T1YLwZCqEgIc3IypkdHjr7QYNne+\nICqgvpzls5s86LKP0u1kj8BhqwKBgQDYaG9CRVBWFW2YW/uxm5Bc8MjAFKonYaoN\nWCMjL5Z2QEaPkX7ew+K7UnJaz50VYnHo2Mrr5vnJfWmoMpRrCIHtihvJrYrv/uuz\n+kiVDyy+kFurxGFyHyhE8W5iK+n0PUGkEjihsB+eJR0r8J1ux63OtkxE+Gi+74Uu\npMI3QNmn+wKBgBj5U3mE45fDUwZ1WYaA1BVYiE7fVJmvggtY66HE82ANeY3D+O33\n4ZbwT0nHFIocprC+cEfIVOVL7KeeNRNo90q3x8Chy+oAMaEcTG/AIaD4kskVEHIl\n5z+23kM3ESUYDHF++mFks1W8rzgHLxGYWvkNYxqKtmlzOM1KrGXoyYY3AoGBAIQB\nyIRrVaL9NTowOetQUpJvCnYo5NZa++lh7yUifSyq7p/bB8IJSYAsvbbpWA/YWlXI\nEJgv8ATZrJ6+I8zahq8IhQTUCKF3Jf5GWQocFJY15sVzaGG94cmUYFogIXkr+KOF\nvefbUJ4eU5ofD1mpEju69fFIelSmNN6MADDGLT8LAoGBAMdGz+gR599Kk3CHI2Po\nDNtbVkigM0tYg8+oQjVCn/TvytePjgD1qqOFIOCPdVcToS3Ll5wExtNMhSubJLIs\nvdun+AQnEt1Pkz6j9/B+4YsPyazp0K/qWUXzKWeUnAlCClHzQNudIr78TA76ND+0\nCH3zZLkYxObJCLQ5grtXQcgn\n-----END PRIVATE KEY-----\n",
  "client_email": "somedco-52@angular-geode-289003.iam.gserviceaccount.com",
  "client_id": "117828995848598155675",
  "auth_uri": "https://accounts.google.com/o/oauth2/auth",
  "token_uri": "https://oauth2.googleapis.com/token",
  "auth_provider_x509_cert_url": "https://www.googleapis.com/oauth2/v1/certs",
  "client_x509_cert_url": "https://www.googleapis.com/robot/v1/metadata/x509/somedco-52%40angular-geode-289003.iam.gserviceaccount.com"
}
