{
  "type": "service_account",
  "project_id": "angular-geode-289003",
  "private_key_id": "6f9901643a44ddfefa0951a336843b6d74386908",
  "private_key": "-----BEGIN PRIVATE KEY-----\nMIIEvQIBADANBgkqhkiG9w0BAQEFAASCBKcwggSjAgEAAoIBAQCp1ePi95+tEea/\n4eHfnCSfUrRYtkeEY92CTvWNrmLOPzKgkP3cM3Jfn5dfwogNmMesLNyBOjbnZoNs\n0LcP745XGGjw/5o6RXujeq+TKjNlW3s18KteHW98qPSJ4C1N7+gb69v/hvznJ63T\n+lHreBetdf4VCngAVM/3+rfqtHWBkP71vrQ7rg73f88CsX7xONL6CsHAwN1yhkuu\nUJE/5XJW5+iilQk+0kS8IBRtcAFxA76iKA3dKKV61VL89H2OKzBsp7F3Gkg2lsJa\niVF/+ovWo4bgRwztqBvoZfpEVnKFxsQG+SnQXenO+4nNAxGVunTsxIoG2632UJKf\njf0CEPP/AgMBAAECggEASxT5G0UXvV6VoazNu5p/AkSA4FstQNUZf1tC6XD303BT\nBHM1F51S6f1W4YnRthkd5PssPKEs1p4WagvXcl8YkV6EPk7xsuM25q39YtUcRans\nzYrpZ8EhoX3cJfwKa1MtTPK3nr7hnZuIGJeoka3U4eWw/0JSjOrxyhJ4LnW7IRzr\n9cD/5Hsl0yjbb9wdrSIxucua0a+Fjpnvpg+jgGWM6hSzRBdBY0xK5/Mak++2BaST\n5W0I65DcLZg8qCjOW4KLkAQJpYypHQppZFQIRDOPzg3lkcqOkChkFWC0ihoJ4FKx\nvvMHBPDPkVVQ6r601KkC4ZPS1TaBqiw/Ocudm1ReGQKBgQDtw3+mJ0FBY0Mcmz9p\nnttw3+As56hgTJokH/czBt6VlRnHg2kdLGoGEwg41PBAPe7ghIxNmfCFZC80++ue\nH1EB7D0VJhblTknN9tLdAZLG+P303U9z52zqYM8ZNP6Wg1gengNWSxaatXSFAcNF\ntXUybiVdgYh6nKKBvbaxfKKlWwKBgQC23J5qCea1QpsX69Ypa8cYmyPIATvWu7z4\nFM0V8gxa/2Bk9MXR8scfNjN3DXlLy4L7zdAS2rzZsIVaDrwjVVyfxZPwTfQM5Ler\ndgRLFktjaQIBT2wfDqt6Et7CW3Dh8+s0N7Ga77UZKiYLIPE25GX00FRCoK+/evTW\nWDT6QjwZLQKBgQCNsx+WVHrNj2zl1ZhbSDOb97DQ0ldE3SJYOTzICmYJW8z7XNP+\ncQPXDuytgiqU/tQotpYvgXkY5nZD64emux86OCLHQeYPTzMpLtrIoDFrp+UiU+sQ\nNnJw1LVYXn8EEM8poB55BVM5bL8+rahFGTn5ji9ypMpD2Kn5DKme6Zq9VQKBgH/M\nDAJ7zPsdA5tiPRhRtKFju0wKYLGgH18Z2oLd2Pi3xbyIvMAP9k2/6ZPonL72CiLF\nIggrSxSwo2HfLmlbPRKEWPH26Psh1aNFJZb8i898EeSshxnlfL4h9gDLO0cO23Bx\nA/UOVfiyVkgsy6fbU84W0uyFtI4T9ozetJe6Npo5AoGAOUBfby3HHdVDKdsUCCYo\nOp6yv6yARcsuLST4cbGvDbZlN7VX2INgli3CnZATkYoSSdLG0BGVzfw9EbIERp61\nnVOKZzMU7DJWADvpyjHcdHk8bTofmJaEsRDwwQLfzbfVQvTq/Sxnl1u5bzYSyCk/\nPOo4gCedckMNhEbGghmYPcU=\n-----END PRIVATE KEY-----\n",
  "client_email": "somedco-68@angular-geode-289003.iam.gserviceaccount.com",
  "client_id": "109804054371853531572",
  "auth_uri": "https://accounts.google.com/o/oauth2/auth",
  "token_uri": "https://oauth2.googleapis.com/token",
  "auth_provider_x509_cert_url": "https://www.googleapis.com/oauth2/v1/certs",
  "client_x509_cert_url": "https://www.googleapis.com/robot/v1/metadata/x509/somedco-68%40angular-geode-289003.iam.gserviceaccount.com"
}
