{
  "type": "service_account",
  "project_id": "angular-geode-289003",
  "private_key_id": "78d96c892625fdbc4aa9d0810cd649a65981a369",
  "private_key": "-----BEGIN PRIVATE KEY-----\nMIIEvQIBADANBgkqhkiG9w0BAQEFAASCBKcwggSjAgEAAoIBAQCscdcTnfiy3e5o\nrlhEj8n6KG1YyQIY5o/8PXFU/nR0WoECd9XbUWjYkCCj97jJagVZv2Zp7yR/yJqI\nPOzKQGQEdWHvrhVNQCPUnMezcN18CQYonRtMUtgB0RO/oRM4XqfVtMBeTaDt8E1a\njI99UHrNmSdqwD7DhpNzVEyDT1rpLFjHTYAb1IUMPnYMefuyC1NXDdiQDIDjH7K+\nwayZQA14JLdLHWCT8bqniz4QcATPPaVzMGYh1sbNid3F9CtRCoycWSbQQthSogrS\nfIF+jgIAzuKPM044G+EMTdYii6+o8EuQE2BQA5NH8FiSz9FwmDZl/8K6IQPxKkh0\n93nZHd1dAgMBAAECggEAIKnBeNxDtrGVzmszmez4b3NH3vjX9lp5rGgA9v3plf5s\nkEidj9i4OMj3/cbW0APOdqTr46Xh7nhTWPndSiPvLe8D+W+qZkL/Zm653tHCihN1\ngKzddlP8yT9Oc84xQ0yekrqVc2dV06vgIwYbybs8P4RCdJRsbwGnHUG66mZWDHND\noxBVRB5IAeYnlfXiytmwhQhDRuZrXQEuPnN6nx+zszvb0PIrqUmuNZkusIqGmlIo\ngNrxVejACi8NTjNkmbw4wbqr2Pn2It6HlroegdYqHkwS8B7AZgXY6Zp0Squv2Xdc\nwbvRPIkxnftDhBmUglltBYpSCOCTyYQSU/Cb97K6qwKBgQDhraW00t082IWWUcUK\nDMZemX77RsEMIyjBgYpevvtwM/lqicvRvrUT4JuWW2k2V7k1McP8+xsHtbm8AMs4\nsJtsuM3dzC+5BcX74WvAUQ5wFiKEPycQbMDs8ngiPRonHy+bFXNpSpAg2jWa2jtA\naJOO29CZH9/EDl1s1ud90ggqvwKBgQDDnTANRLTVRJk36N8Pg0Coq0UsTyXF3vBj\ntouOg1OJ2fC69OVw8PJg++2uALUd8y+0ErQvJIZlhQdr7zyLHmFxCkuu5jzRrgpr\nSOyZIRxgLO4b13kmR2AMdRUr2H4stlrxUJghAHjWL/eGzjjNtGzlBEtnXQ3/rNqo\nXqjCaWuK4wKBgQCx+MIcJsqIKGy5DcUo1sg9ZClqufKVwshqSeE4NL6PTr2cEg0l\nXJLqmQ+59F61l1qco6FeyRwY6WwO4kVhcI0xoU/gYR0leXMX3z6dTI7pP9t6lV8W\nKd2/PrwUrEEKpyJg1/rLBx1AezUY6I8fjRkI6TrI9wT9VSLCKXwnklIUewKBgEGG\naO844Z5C8VQiJH4syD73yB8UkCGdEUdFgbAGW7hkkdf+atEPVRGZsj9EK2dR69vV\nHBhiksZ07kyAgfZUAe38tedrZloSg5j2f5K33ap1wnj/D6z74beqjKH4TiOqHgKR\nrbP4VYHh5Xd5ott9IbEBZETGjgbkHwahVsRwzb5jAoGAcnxuz6kh7V87a7q5n7ij\nSR8kzc/AeBZ+U1T0XTX3VkvUssYAjV+Msjy454uVFMmpl33Zk/8f19HwJu0DiLCy\nbn1pugrbVAW7M4h55Z+ogjCmNQTk9rQTYUy3l+q8uu9iFHM+ivHkZnRDWaA3p70u\nJ/RGxSAnrOAOP6wclQd0TlY=\n-----END PRIVATE KEY-----\n",
  "client_email": "somedco-69@angular-geode-289003.iam.gserviceaccount.com",
  "client_id": "109083361028949852938",
  "auth_uri": "https://accounts.google.com/o/oauth2/auth",
  "token_uri": "https://oauth2.googleapis.com/token",
  "auth_provider_x509_cert_url": "https://www.googleapis.com/oauth2/v1/certs",
  "client_x509_cert_url": "https://www.googleapis.com/robot/v1/metadata/x509/somedco-69%40angular-geode-289003.iam.gserviceaccount.com"
}
