{
  "type": "service_account",
  "project_id": "angular-geode-289003",
  "private_key_id": "688b196a889d915be1d9ed168b874b310f6a48ff",
  "private_key": "-----BEGIN PRIVATE KEY-----\nMIIEvQIBADANBgkqhkiG9w0BAQEFAASCBKcwggSjAgEAAoIBAQCJkmwpeGoKvl04\nk+P49/mg3g+f0/qtK1mtmUFpFhpmgCZZwcqcw9VgRp0WeEcoY76l/bXPvP7+pWUt\ntJReV72ZEsSkV3xp/ePfQYiHEzUZyyzmm2OQN5jrvQgG+ux6VKB2di907zdVTvBz\nGeOaQnLgPaPXG8U6DLE4YzyTAJKCWXR2cheCOPoMNcXdkiw6oCcVj7eDTUfLQG84\nNz5yx6A3AFwX55VgqEFJ5YqDkH8xTtTi8PT9wL77y6sgUpKkcNqrYjdHU3KS5ETF\nCKWXfkxP4t7hvp+xTsjQCluTYzafak8pE8wIXcI/LxkiXlwFHFbdyteiIGvCLtz1\n7q9Bu+mBAgMBAAECggEAFLWLfbSoNeTRMKamn0Bo/gvfiz5EUpQfhE/5NkIDCGIL\nI+DVyMJ8GOmYVR0XDR/yv5cRKuv28MtiDz7LROZtXqEiI+Edk/EJv/5j+H1uNWtN\n34sNslSEOxxyHGbieUnK+/ovi6lFCZz/+juv9PVCyLnOs591EZd+iA/8Ot7Przpi\nlJI80V/CRrrBxOY6/fKdqsoAorcAwymzjUyldcpyNifNQDUL4SFrdsleE2/NQ322\nTGaTRT82R+B6OrbdkqDEjo9bH3iF8zjupnDkp2kIqwdaTFjWg8rq7K7dIzOQ2vX2\nYYTuEAnCqRBts+mLLYk9wh0f2xP6L1PaA4WErMSwBwKBgQDBX09hyWPp2RPKj8Py\n+rMA6spGIqValB115kNW3TMNKtVvuooiGiGZ7sgvAlTMWISo9e7fzEpEi2hCfN6d\nkXC6lUsaGzUofUnffaiv7tNM2dnhDACFRzxbHIyccpasMTktjIGAGyoOrMMBdx5y\nbi/pJEkZ6ds1qEEvOFFAwlrDdwKBgQC2IKaPRpBVWqpKt4JGEFvo03lwryyQyy07\nLb+s7Z1lolWSq/T23w874fngL+zVmRKTJeeVm0U2nnQ/NLaMStIqMqmUE0Ff4Awi\nKjukORUTT3lu4GrFgXrQ1jQYUC02Wt1YlccZx+r2EiQXCY4RjIh3IonZ1+FuOJlm\ngD6l04/IxwKBgF0SuuqePHD6AwSkXfQ9ppryZ5mKY3xNfkCZLCBLJ59W1pSIfKQd\nX77vp3q47IfOs0t/1BH0CmsjjnMyFxRQRKoJ4bQXFGcApuXjXaYQlbOPx8cCN93u\ng6Z2/1bt8IfAyXya/FnkuUGG9fVmmEkLsBPPW0AVx2T0LyvDN5ir83PRAoGABpEY\n0FOwApPZTgZd2R7f4X42g7ydM79PqzGUFq0enrqCsV4n3/rc9sDIHLA9rtntFIcq\nWXeWwEhoUpsY9egAuerHuIIVOlq+tUCmk95HB0I3U6sdzm9DuWHv0OybJLmT/4yu\n+BwAOc0fpgD/MVzK0tjY9ZTWGP5LcamwGJSPO6MCgYEAsR8pdDeD243elhpZrhwZ\ncv5aeLC+gaAe3H5bKq8edRwfdYOe8GpIwVJuje8EfJH479PAtIIgwbjEiwEYXL5K\n9PJyMYhJ9tfwfopCBK2a68/EhpSuFylneWSiJ73yYp0ja1Lg7zxqJU1uPQTppiqO\nI4oOk5hdKPeQiqSXI3T1TF8=\n-----END PRIVATE KEY-----\n",
  "client_email": "somedco-75@angular-geode-289003.iam.gserviceaccount.com",
  "client_id": "103057876215096014200",
  "auth_uri": "https://accounts.google.com/o/oauth2/auth",
  "token_uri": "https://oauth2.googleapis.com/token",
  "auth_provider_x509_cert_url": "https://www.googleapis.com/oauth2/v1/certs",
  "client_x509_cert_url": "https://www.googleapis.com/robot/v1/metadata/x509/somedco-75%40angular-geode-289003.iam.gserviceaccount.com"
}
