{
  "type": "service_account",
  "project_id": "angular-geode-289003",
  "private_key_id": "8bfe6553c8ff9d02a1e71d5835dded04da338321",
  "private_key": "-----BEGIN PRIVATE KEY-----\nMIIEvAIBADANBgkqhkiG9w0BAQEFAASCBKYwggSiAgEAAoIBAQCtVC4EbHa9cvxu\nw41YHtbceX5QunysTYgpD1UIJ+wEB5RcQNmgVSOIBOKrJbAv4frBKOHqqQ2djB1r\nVohBpiDobtoNwb/opqNp33uET4NQ6q0qpQctZ+veAkYn5yD5ikPATbIaGk2V1gTG\n/sv1Q6uaFQVIL6jkU3N+rx0UbsTYxbyGTACJKhXVMwoIXgBqjfyfaIhMMSdMZuoT\nSXu4oggE1Fw+IhQKMOWFiKHif75pMBUTm++y03m4q7CtPyiNcDUcw9cCSja7eNnD\nVUC9dzY7A5uZ44K948VzZgZKUNiwqSws/ZARGdqxxrzRe+pydpn/vgM1Kf2Zwl4I\n79koUgXZAgMBAAECggEAA5trPz6SHIh0ciop6n3uzwUMwMmWv1+4MBGQfZRWHDHb\nr61OUiC/dezTGkh1IZP4e9VZ2UA2JzOTp6iT+pjGWcv3x/5CnAj+wNzspUDh3Njb\nbHYlf3eIkDTYKKut0x+iYBHF3XbzayU6cXk7PaIQQ8tA8kMCpujJMCddCbAx8shm\n4BW25qREcnK3rYv354aap1soq2wPYNJBojS3WHwh6Axthh0qzkN8rxdUcBaee74/\nSTspK/ebjexoa60hBHOUEavGyHdQtxW0D013KBbOnsB2uZaxtYPa6ebcGAvj4Rxf\nOG420lagQlkPhuCw4uGKvZxHe59d6dWlDWlSYf8hYQKBgQDoU1gxbU9FRjVQc67a\nTSbdbyompSrv35vfeLaD8JxdLBVTbbH1RiQOVn34HKudoBF1G1DAdTkAgZCx+GHn\n6oQEmmszOqGtw47luYwwv7n0jvQfz5sLovNAFA8sBACMbYleemvEDdCcPtCjalvd\nwlsgGPjp7n4lKK/dusQjdb8ReQKBgQC+/cr2n5DADCILdmPX3kl0dXhOQdWFseN5\ncrFFl6V9w7s+TQ8GEp5Fd3HMlUYegxxp9pFDEODVatLyfXu6rG4xEod6ys6ssnrg\nujgYT2VTliF10iJ+buZmBm9rMnGg8DsTQRHm8CCEoWdyaGvyxZDKI2S4cOibVLHz\nVO2Yl1TfYQKBgFnWEJ5cRHDnKyqG8TAc8VBi8gurhqTm9KE/TmRKoEwvBbgTDONp\nUfvxWhidDYeQI/ACtgEV0wrtDwSipUlGl/InvBg9LdPBcPpH+3vGR6PXu3Kplqyz\nQBihKRS+H3At0xajhBR1uxsP9yGZuRhRVWdeALKEtGauCwNUew+zMkURAoGAebL+\nQWgrtDQG/YbS2Bqsc6jmn/cTN73CVQDgNJgMu7ac+XXgvN3gPCOAP/xeUdL5qAuV\nREbc/SC0ig+rZ6e4D0zfRz8zspeH9Oq0E8mDp19istDTaf0AksJG/OeHwCVTf1FX\nNvCLx/eREzW2k1uQhz1GUMChd1jgi0zymOjVDAECgYBxs6e9g9Kq4ZSbvViY+kFj\n19PIo+t2cSMNmZMfmEeLx74L448/5Bcwza41TFHhjQyFCGZl4cFBAMRioTV8l9jv\nVveN/VlZx1fhF27WdKH+aavMaq5RR/KXuzV1Pn3WvpZE9n40p+Cu1AlKPleYhdYQ\nb4TnnGXZQ+Kjuxzx0Io9vA==\n-----END PRIVATE KEY-----\n",
  "client_email": "somedco-84@angular-geode-289003.iam.gserviceaccount.com",
  "client_id": "100988593000420406582",
  "auth_uri": "https://accounts.google.com/o/oauth2/auth",
  "token_uri": "https://oauth2.googleapis.com/token",
  "auth_provider_x509_cert_url": "https://www.googleapis.com/oauth2/v1/certs",
  "client_x509_cert_url": "https://www.googleapis.com/robot/v1/metadata/x509/somedco-84%40angular-geode-289003.iam.gserviceaccount.com"
}
