{
  "type": "service_account",
  "project_id": "angular-geode-289003",
  "private_key_id": "b09ba2041fd5a10c8fb2e0fc32bfea72206f4f96",
  "private_key": "-----BEGIN PRIVATE KEY-----\nMIIEvgIBADANBgkqhkiG9w0BAQEFAASCBKgwggSkAgEAAoIBAQCkdUT1oLYRabe+\nFkbzMhDaBItK0kobxZKGsNVl/Hq8b3xybYA7rSM6tVwC9s6A7weTt5kYkTnb7lil\nRodfFsiqQ+bKVuVm5HbeAXqaktHLWJoopGc8ejlHNV5Q47z4miuvO/hm4DGPmJvs\nizEBPi+w5GHgHK57Xfaj3i6qCtGI1LpxyUu0jXxvSzUo+OQtvwbWbOMShxNb7GuH\n+2x29T5+RxDbRPxN4nE4Py6bEqLNRRSJAojQtZS0srC2q/VfGxzcRhp0yqvb+8Lv\nVK8DbC82b4/WAUWgI0WnteQSSok/+HKKl4Nvxv3PygEw+IEFdlefHmby1DMcnjzu\naq4CiRiNAgMBAAECggEAQKwNDjrA3mAgbZP9Gq3ZiqK21BmWIw2y7VykzpJXAbsl\nySnef5k6fV/May37TyCwbhqJDewuQJqeKYBuw6oGB07kdzVsyOWXCP6z5A1QixKw\nrMLaBiJaW/JUwKKOMYUPIL4IlQwc8UcmKgMipkZ6IqntA2DEDKeK0i4RU7UlaRT8\nahxehlTxDCDPwxttS1sctd6/bUyP/6wFds4AX+xU+7hhwKSx5+EEe/9Stnz8mZ/z\nXypLTGkRyYxj1vyKvvNU9aextq4iZzidsMEJ2JdbHz4pN2zFdhdIrkQ16Nvrjet8\nFeegzE6jWL9OtNF88Ta0n3HkNWk2Rv+nGCnRUgk60QKBgQDjyOVli9i5eaR0U6Q1\n31HV5DsZo7jdNXfkyhGinGz+tc+30iB9ybl9uUrI7Jb4/LyTEcld4ByBvQsmkZ6z\nyDpwnOF0VQ56ql6uJ2pOvIyl9YrBMXgIikHDY0aO0YPvsbmhyDMbTAsf0Md8saJy\nI6JunLPQQ5Wa923Bk78log1NswKBgQC41EVbn28JRsSN20x97HDYke08BcBfHNbv\nDYD7Gn7Sy3jsKDCCC/prjyDAiHYmRbNT+uv7UBKip+N7pftRxAiQ0nBMBou/L60p\n/Bj/MV2cqDoHrwGAcbx9Z4zQLStRqQj1D8Fa8uhU9oU0eUt4vm3bhMFopBC+19mG\ncQfbiiNgvwKBgQCGoF/kaokG5jwqfJzbMkgd0KyVdMx4AXgBAuT1ZNqOmEpSbKDD\nd4xoIDFxG1QHiOizS5nmH+T5UQ/cFcjknPzdPfuKVBMgsL0Q1T7hllLSa5M8p843\nze8cWfqDwpTl//alBbwe8AzLGwwsSJioOSNxmLA18Rvk4UQ/WuFojqSqPQKBgBeg\nu0UdOpqa+2GPGVY3ta1Z6lP0AEWocCmbNlPjbTcRX+IAuULGuTqqz2sNht0Zp/Ui\nbKxx7g/xGnmiHGC1iMrKvCRb6d2FAMQPQDrPWsI+Fz0IOE7tO0VkyXGLdLA5xbVe\nUD+KMf06jojIwMcswOqBLCBuaN2cxmgTZwe/vwoNAoGBAMsxcp5GXv18utg0PR9N\nl6s5JIKpseeVut5f87YI/xo8QAbjyyaSCmYqX5KjWXKLGYAOUGlKNGzNdT3V2+5G\nCtK8zeXqrlYKlqPIZCt52zDJRh0JIaKoiB/D7E2XoQSjZ+o0z5UCjG7FbFTpH5I7\nUcTxR46iYn0lJlCSMEXJun5j\n-----END PRIVATE KEY-----\n",
  "client_email": "somedco-90@angular-geode-289003.iam.gserviceaccount.com",
  "client_id": "113872609387941209261",
  "auth_uri": "https://accounts.google.com/o/oauth2/auth",
  "token_uri": "https://oauth2.googleapis.com/token",
  "auth_provider_x509_cert_url": "https://www.googleapis.com/oauth2/v1/certs",
  "client_x509_cert_url": "https://www.googleapis.com/robot/v1/metadata/x509/somedco-90%40angular-geode-289003.iam.gserviceaccount.com"
}
